<svg width="24" height="24" viewBox="0 0 24 24" fill="none" xmlns="http://www.w3.org/2000/svg">
<path d="M23.4616 20.5312L14.6034 11.8853L23.4136 3.28673C24.132 2.58514 24.132 1.44783 23.4136 0.746613C22.6947 0.0453999 21.5298 0.0453999 20.8109 0.746613L12.0008 9.34521L3.19098 0.746613C2.47212 0.0453999 1.30722 0.0453999 0.588356 0.746613C-0.130505 1.44821 -0.130505 2.58552 0.588356 3.28673L9.39814 11.8853L0.539145 20.5312C-0.179715 21.2328 -0.179715 22.3697 0.539145 23.0713C0.898576 23.4221 1.36942 23.5973 1.84065 23.5973C2.31189 23.5973 2.78273 23.4221 3.14216 23.0713L12.0008 14.4255L20.859 23.0713C21.2184 23.4221 21.6892 23.5973 22.1605 23.5973C22.6317 23.5973 23.1026 23.4221 23.462 23.0713C24.1801 22.3701 24.1801 21.2328 23.4616 20.5312Z" fill="white"/>
</svg>
