<svg width="40" height="40" viewBox="0 0 40 40" fill="none" xmlns="http://www.w3.org/2000/svg">
<circle cx="20" cy="20" r="20" fill="#EDEEFF"/>
<g clip-path="url(#clip0)">
<path d="M23.3429 23.9199C23.5639 23.9199 23.7759 23.8321 23.9321 23.6758C24.0884 23.5195 24.1762 23.3076 24.1762 23.0866C24.1803 23.0311 24.1803 22.9754 24.1762 22.9199C24.1671 22.8677 24.1502 22.8171 24.1262 22.7699C24.108 22.7168 24.0827 22.6664 24.0512 22.6199L23.9512 22.4949C23.8702 22.4213 23.7772 22.3621 23.6762 22.3199C23.4733 22.2366 23.2458 22.2366 23.0429 22.3199C22.9419 22.3621 22.8489 22.4213 22.7679 22.4949L22.6679 22.6199C22.6363 22.6664 22.6111 22.7168 22.5929 22.7699C22.5688 22.8171 22.552 22.8677 22.5429 22.9199C22.5388 22.9754 22.5388 23.0311 22.5429 23.0866C22.5429 23.3076 22.6307 23.5195 22.787 23.6758C22.9432 23.8321 23.1552 23.9199 23.3762 23.9199H23.3429ZM25.0095 11.4199C25.0095 11.4199 22.5832 9.99988 20.0047 9.99988C17.4262 9.99988 15.0095 11.4199 15.0095 11.4199C14.5832 11.6665 13.3332 12.4999 13.3332 12.4999C12.8644 12.9687 12.5095 13.2569 12.5095 13.9199V23.9199C12.5108 24.3066 12.6018 24.6877 12.7753 25.0333C12.9489 25.3789 13.2002 25.6795 13.5095 25.9116L12.7512 26.6616C12.6731 26.739 12.6111 26.8312 12.5688 26.9328C12.5265 27.0343 12.5047 27.1432 12.5047 27.2532C12.5047 27.3632 12.5265 27.4722 12.5688 27.5737C12.6111 27.6753 12.6731 27.7674 12.7512 27.8449C12.8287 27.923 12.9208 27.985 13.0224 28.0273C13.1239 28.0696 13.2329 28.0914 13.3429 28.0914C13.4529 28.0914 13.5618 28.0696 13.6634 28.0273C13.7649 27.985 13.8571 27.923 13.9345 27.8449L15.3512 26.4199H24.6679L26.0845 27.8449C26.162 27.923 26.2542 27.985 26.3557 28.0273C26.4573 28.0696 26.5662 28.0914 26.6762 28.0914C26.7862 28.0914 26.8951 28.0696 26.9967 28.0273C27.0982 27.985 27.1904 27.923 27.2679 27.8449C27.346 27.7674 27.408 27.6753 27.4503 27.5737C27.4926 27.4722 27.5144 27.3632 27.5144 27.2532C27.5144 27.1432 27.4926 27.0343 27.4503 26.9328C27.408 26.8312 27.346 26.739 27.2679 26.6616L26.5095 25.9116C26.8189 25.6795 27.0702 25.3789 27.2438 25.0333C27.4173 24.6877 27.5083 24.3066 27.5095 23.9199V13.9199C27.5095 13.2569 26.6665 12.4999 26.6665 12.4999C26.6665 12.4999 25.5988 11.7489 25.0095 11.4199ZM14.1762 16.4199H19.1762V19.7532H14.1762V16.4199ZM25.8429 23.9199C25.8429 24.1409 25.7551 24.3529 25.5988 24.5092C25.4425 24.6654 25.2306 24.7532 25.0095 24.7532H15.0095C14.7885 24.7532 14.5766 24.6654 14.4203 24.5092C14.264 24.3529 14.1762 24.1409 14.1762 23.9199V21.4199H25.8429V23.9199ZM25.8429 19.7532H19.1762V16.4199H25.8429V19.7532ZM25.8429 14.7532H14.1762V13.9199C14.1762 13.6989 14.5832 13.3332 14.5832 13.3332C14.5832 13.3332 14.5832 13.3332 15.0095 13.0866C15.0095 13.0866 17.0929 11.6665 20.0047 11.6665C22.9165 11.6665 25.0095 13.0866 25.0095 13.0866C25.4165 13.3332 25.4165 13.3332 25.4165 13.3332C25.4165 13.3332 25.8429 13.6989 25.8429 13.9199V14.7532ZM16.6762 23.9199C16.8972 23.9199 17.1092 23.8321 17.2655 23.6758C17.4217 23.5195 17.5095 23.3076 17.5095 23.0866C17.5136 23.0311 17.5136 22.9754 17.5095 22.9199C17.5004 22.8677 17.4836 22.8171 17.4595 22.7699C17.4413 22.7168 17.4161 22.6664 17.3845 22.6199L17.2845 22.4949C17.2035 22.4213 17.1105 22.3621 17.0095 22.3199C16.8067 22.2366 16.5791 22.2366 16.3762 22.3199C16.2752 22.3621 16.1822 22.4213 16.1012 22.4949L16.0012 22.6199C15.9697 22.6664 15.9444 22.7168 15.9262 22.7699C15.8905 22.8151 15.8624 22.8657 15.8429 22.9199C15.8388 22.9754 15.8388 23.0311 15.8429 23.0866C15.8438 23.3052 15.9306 23.5147 16.0845 23.6699C16.1617 23.7486 16.2538 23.8113 16.3553 23.8542C16.4569 23.8971 16.566 23.9194 16.6762 23.9199Z" fill="#2831A6"/>
<rect x="14.1666" y="26.6667" width="11.6667" height="0.833336" fill="#2831A6"/>
</g>
<defs>
<clipPath id="clip0">
<rect width="20" height="20" fill="white" transform="translate(10 10)"/>
</clipPath>
</defs>
</svg>
